EESchema Schematic File Version 2
LIBS:power
LIBS:device
LIBS:transistors
LIBS:conn
LIBS:linear
LIBS:regul
LIBS:74xx
LIBS:cmos4000
LIBS:adc-dac
LIBS:memory
LIBS:xilinx
LIBS:microcontrollers
LIBS:dsp
LIBS:microchip
LIBS:analog_switches
LIBS:motorola
LIBS:texas
LIBS:intel
LIBS:audio
LIBS:interface
LIBS:digital-audio
LIBS:philips
LIBS:display
LIBS:cypress
LIBS:siliconi
LIBS:opto
LIBS:atmel
LIBS:contrib
LIBS:valves
LIBS:GPSTracker-cache
EELAYER 25 0
EELAYER END
$Descr A4 11693 8268
encoding utf-8
Sheet 1 1
Title ""
Date ""
Rev ""
Comp ""
Comment1 ""
Comment2 ""
Comment3 ""
Comment4 ""
$EndDescr
$Comp
L ATMEGA328P-P IC1
U 1 1 55FDD24A
P 4950 3050
F 0 "IC1" H 4200 4300 40  0000 L BNN
F 1 "ATMEGA328P-P" H 5350 1650 40  0000 L BNN
F 2 "Sockets_DIP:DIP-28__300_ELL" H 4950 3050 30  0000 C CIN
F 3 "" H 4950 3050 60  0000 C CNN
	1    4950 3050
	1    0    0    -1  
$EndComp
$Comp
L VCC #PWR7
U 1 1 55FDD323
P 3900 1950
F 0 "#PWR7" H 3900 1800 50  0001 C CNN
F 1 "VCC" H 3900 2100 50  0000 C CNN
F 2 "" H 3900 1950 60  0000 C CNN
F 3 "" H 3900 1950 60  0000 C CNN
	1    3900 1950
	1    0    0    -1  
$EndComp
$Comp
L GND #PWR8
U 1 1 55FDD3CF
P 4050 4300
F 0 "#PWR8" H 4050 4050 50  0001 C CNN
F 1 "GND" H 4050 4150 50  0000 C CNN
F 2 "" H 4050 4300 60  0000 C CNN
F 3 "" H 4050 4300 60  0000 C CNN
	1    4050 4300
	1    0    0    -1  
$EndComp
$Comp
L Crystal_Small Y1
U 1 1 55FDD845
P 6400 2600
F 0 "Y1" H 6400 2700 50  0000 C CNN
F 1 "16MHz" H 6400 2500 50  0000 C CNN
F 2 "Crystals:Crystal_HC50-U_Vertical" H 6400 2600 60  0001 C CNN
F 3 "" H 6400 2600 60  0000 C CNN
	1    6400 2600
	0    1    1    0   
$EndComp
$Comp
L C C2
U 1 1 55FDD9A1
P 6750 2400
F 0 "C2" H 6775 2500 50  0000 L CNN
F 1 "22pF" H 6775 2300 50  0000 L CNN
F 2 "Capacitors_ThroughHole:C_Disc_D3_P2.5" H 6788 2250 30  0001 C CNN
F 3 "" H 6750 2400 60  0000 C CNN
	1    6750 2400
	0    1    1    0   
$EndComp
$Comp
L C C3
U 1 1 55FDD9D2
P 6750 2800
F 0 "C3" H 6775 2900 50  0000 L CNN
F 1 "22pF" H 6775 2700 50  0000 L CNN
F 2 "Capacitors_ThroughHole:C_Disc_D3_P2.5" H 6788 2650 30  0001 C CNN
F 3 "" H 6750 2800 60  0000 C CNN
	1    6750 2800
	0    1    1    0   
$EndComp
$Comp
L GND #PWR12
U 1 1 55FDDA7D
P 7100 2650
F 0 "#PWR12" H 7100 2400 50  0001 C CNN
F 1 "GND" H 7100 2500 50  0000 C CNN
F 2 "" H 7100 2650 60  0000 C CNN
F 3 "" H 7100 2650 60  0000 C CNN
	1    7100 2650
	1    0    0    -1  
$EndComp
$Comp
L VCC #PWR5
U 1 1 55FDDC20
P 3400 2800
F 0 "#PWR5" H 3400 2650 50  0001 C CNN
F 1 "VCC" H 3400 2950 50  0000 C CNN
F 2 "" H 3400 2800 60  0000 C CNN
F 3 "" H 3400 2800 60  0000 C CNN
	1    3400 2800
	1    0    0    -1  
$EndComp
$Comp
L GND #PWR6
U 1 1 55FDDC40
P 3400 3200
F 0 "#PWR6" H 3400 2950 50  0001 C CNN
F 1 "GND" H 3400 3050 50  0000 C CNN
F 2 "" H 3400 3200 60  0000 C CNN
F 3 "" H 3400 3200 60  0000 C CNN
	1    3400 3200
	1    0    0    -1  
$EndComp
$Comp
L C C1
U 1 1 55FDDC64
P 3400 3000
F 0 "C1" H 3425 3100 50  0000 L CNN
F 1 "10nF" H 3425 2900 50  0000 L CNN
F 2 "Capacitors_ThroughHole:C_Disc_D3_P2.5" H 3438 2850 30  0001 C CNN
F 3 "" H 3400 3000 60  0000 C CNN
	1    3400 3000
	-1   0    0    1   
$EndComp
$Comp
L CONN_02X05 P1
U 1 1 55FDEC1A
P 2600 3050
F 0 "P1" H 2600 3350 50  0000 C CNN
F 1 "POWER" H 2600 2750 50  0000 C CNN
F 2 "Pin_Headers:Pin_Header_Straight_2x05" H 2600 1850 60  0001 C CNN
F 3 "" H 2600 1850 60  0000 C CNN
	1    2600 3050
	1    0    0    -1  
$EndComp
$Comp
L VCC #PWR2
U 1 1 55FDEE79
P 2350 2650
F 0 "#PWR2" H 2350 2500 50  0001 C CNN
F 1 "VCC" H 2350 2800 50  0000 C CNN
F 2 "" H 2350 2650 60  0000 C CNN
F 3 "" H 2350 2650 60  0000 C CNN
	1    2350 2650
	1    0    0    -1  
$EndComp
$Comp
L GND #PWR3
U 1 1 55FDEE9F
P 2950 2650
F 0 "#PWR3" H 2950 2400 50  0001 C CNN
F 1 "GND" H 2950 2500 50  0000 C CNN
F 2 "" H 2950 2650 60  0000 C CNN
F 3 "" H 2950 2650 60  0000 C CNN
	1    2950 2650
	1    0    0    -1  
$EndComp
$Comp
L CONN_02X03 P3
U 1 1 55FDF3A2
P 6250 5000
F 0 "P3" H 6250 5200 50  0000 C CNN
F 1 "LEDs" H 6250 4800 50  0000 C CNN
F 2 "Pin_Headers:Pin_Header_Straight_2x03" H 6250 3800 60  0001 C CNN
F 3 "" H 6250 3800 60  0000 C CNN
	1    6250 5000
	1    0    0    -1  
$EndComp
$Comp
L VCC #PWR9
U 1 1 55FDF53A
P 5600 4850
F 0 "#PWR9" H 5600 4700 50  0001 C CNN
F 1 "VCC" H 5600 5000 50  0000 C CNN
F 2 "" H 5600 4850 60  0000 C CNN
F 3 "" H 5600 4850 60  0000 C CNN
	1    5600 4850
	1    0    0    -1  
$EndComp
$Comp
L R R1
U 1 1 55FDF571
P 5800 4850
F 0 "R1" V 5880 4850 50  0000 C CNN
F 1 "1K" V 5800 4850 50  0000 C CNN
F 2 "Resistors_ThroughHole:Resistor_Horizontal_RM10mm" V 5730 4850 30  0001 C CNN
F 3 "" H 5800 4850 30  0000 C CNN
	1    5800 4850
	0    1    1    0   
$EndComp
$Comp
L R R2
U 1 1 55FDF6F4
P 5800 5000
F 0 "R2" V 5880 5000 50  0000 C CNN
F 1 "1K" V 5800 5000 50  0000 C CNN
F 2 "Resistors_ThroughHole:Resistor_Horizontal_RM10mm" V 5730 5000 30  0001 C CNN
F 3 "" H 5800 5000 30  0000 C CNN
	1    5800 5000
	0    1    1    0   
$EndComp
$Comp
L R R3
U 1 1 55FDF737
P 5800 5150
F 0 "R3" V 5880 5150 50  0000 C CNN
F 1 "1K" V 5800 5150 50  0000 C CNN
F 2 "Resistors_ThroughHole:Resistor_Horizontal_RM10mm" V 5730 5150 30  0001 C CNN
F 3 "" H 5800 5150 30  0000 C CNN
	1    5800 5150
	0    1    1    0   
$EndComp
$Comp
L GND #PWR11
U 1 1 55FE02EA
P 6750 5100
F 0 "#PWR11" H 6750 4850 50  0001 C CNN
F 1 "GND" H 6750 4950 50  0000 C CNN
F 2 "" H 6750 5100 60  0000 C CNN
F 3 "" H 6750 5100 60  0000 C CNN
	1    6750 5100
	1    0    0    -1  
$EndComp
Text Label 5450 5150 0    60   ~ 0
GPS
Text Label 5400 5000 0    60   ~ 0
GSM
Text Label 6250 4050 0    60   ~ 0
GPS
Text Label 6250 4150 0    60   ~ 0
GSM
Text Label 6250 4250 0    60   ~ 0
RX
Text Label 6500 1950 0    60   ~ 0
TX
$Comp
L CONN_01X02 P2
U 1 1 55FE115C
P 6150 5700
F 0 "P2" H 6150 5850 50  0000 C CNN
F 1 "GPS" V 6250 5700 50  0000 C CNN
F 2 "Pin_Headers:Pin_Header_Straight_1x02" H 6150 5700 60  0001 C CNN
F 3 "" H 6150 5700 60  0000 C CNN
	1    6150 5700
	1    0    0    -1  
$EndComp
Text Label 5500 5650 0    60   ~ 0
RX
Text Label 5500 5750 0    60   ~ 0
TX
$Comp
L CONN_01X05 P4
U 1 1 55FE3448
P 6900 3650
F 0 "P4" H 6900 3950 50  0000 C CNN
F 1 "RX/TX" V 7000 3650 50  0000 C CNN
F 2 "Pin_Headers:Pin_Header_Straight_1x05" H 6900 3650 60  0001 C CNN
F 3 "" H 6900 3650 60  0000 C CNN
	1    6900 3650
	1    0    0    -1  
$EndComp
$Comp
L R R4
U 1 1 55FE37EA
P 6350 3300
F 0 "R4" V 6430 3300 50  0000 C CNN
F 1 "10k" V 6350 3300 50  0000 C CNN
F 2 "Resistors_ThroughHole:Resistor_Horizontal_RM10mm" V 6280 3300 30  0001 C CNN
F 3 "" H 6350 3300 30  0000 C CNN
	1    6350 3300
	0    1    1    0   
$EndComp
$Comp
L VCC #PWR10
U 1 1 55FE386F
P 6600 3300
F 0 "#PWR10" H 6600 3150 50  0001 C CNN
F 1 "VCC" H 6600 3450 50  0000 C CNN
F 2 "" H 6600 3300 60  0000 C CNN
F 3 "" H 6600 3300 60  0000 C CNN
	1    6600 3300
	1    0    0    -1  
$EndComp
NoConn ~ 4050 2550
$Comp
L PWR_FLAG #FLG2
U 1 1 55FE4C38
P 4000 1700
F 0 "#FLG2" H 4000 1795 50  0001 C CNN
F 1 "PWR_FLAG" H 4000 1880 50  0000 C CNN
F 2 "" H 4000 1700 60  0000 C CNN
F 3 "" H 4000 1700 60  0000 C CNN
	1    4000 1700
	1    0    0    -1  
$EndComp
$Comp
L PWR_FLAG #FLG1
U 1 1 55FE5025
P 2850 2650
F 0 "#FLG1" H 2850 2745 50  0001 C CNN
F 1 "PWR_FLAG" H 2850 2830 50  0000 C CNN
F 2 "" H 2850 2650 60  0000 C CNN
F 3 "" H 2850 2650 60  0000 C CNN
	1    2850 2650
	1    0    0    -1  
$EndComp
$Comp
L CONN_02X12 P5
U 1 1 5608E8AB
P 8750 3000
F 0 "P5" H 8750 3650 50  0000 C CNN
F 1 "CONN_02X12" V 8750 3000 50  0000 C CNN
F 2 "Socket_Strips:Socket_Strip_Straight_2x12" H 8750 1800 60  0001 C CNN
F 3 "" H 8750 1800 60  0000 C CNN
	1    8750 3000
	-1   0    0    -1  
$EndComp
Wire Wire Line
	3900 1950 4050 1950
Wire Wire Line
	4050 2250 3900 2250
Wire Wire Line
	3900 2250 3900 1950
Wire Wire Line
	4050 4150 4050 4300
Connection ~ 4050 4250
Wire Wire Line
	5950 2650 6100 2650
Wire Wire Line
	6100 2650 6100 2700
Wire Wire Line
	6100 2700 6400 2700
Wire Wire Line
	6400 2500 6100 2500
Wire Wire Line
	6100 2500 6100 2550
Wire Wire Line
	6100 2550 5950 2550
Wire Wire Line
	6400 2700 6400 2800
Wire Wire Line
	6400 2800 6600 2800
Wire Wire Line
	6400 2500 6400 2400
Wire Wire Line
	6400 2400 6600 2400
Wire Wire Line
	6900 2400 6900 2800
Wire Wire Line
	6900 2600 7100 2600
Wire Wire Line
	7100 2600 7100 2650
Connection ~ 6900 2600
Wire Wire Line
	3400 3200 3400 3150
Wire Wire Line
	3400 2850 3400 2800
Wire Wire Line
	2350 2650 2350 3250
Connection ~ 2350 2950
Connection ~ 2350 3050
Connection ~ 2350 3150
Connection ~ 2350 2850
Wire Wire Line
	2850 2650 2850 3250
Connection ~ 2850 3150
Connection ~ 2850 3050
Connection ~ 2850 2950
Wire Wire Line
	2850 2650 2950 2650
Connection ~ 2850 2850
Wire Wire Line
	5950 3550 6700 3550
Wire Wire Line
	5950 3650 6700 3650
Wire Wire Line
	5950 3750 6700 3750
Wire Wire Line
	5950 3850 6700 3850
Wire Wire Line
	6500 4900 6500 5100
Connection ~ 6500 5000
Wire Wire Line
	6500 5100 6750 5100
Wire Wire Line
	5650 4850 5600 4850
Wire Wire Line
	6000 4900 6000 4850
Wire Wire Line
	6000 5000 5950 5000
Wire Wire Line
	5650 5000 5400 5000
Wire Wire Line
	5650 5150 5450 5150
Wire Wire Line
	6000 4850 5950 4850
Wire Wire Line
	6000 5100 6000 5150
Wire Wire Line
	6000 5150 5950 5150
Wire Wire Line
	5950 4050 6250 4050
Wire Wire Line
	5950 4150 6250 4150
Wire Wire Line
	5950 4250 6250 4250
Wire Wire Line
	5950 1950 6500 1950
Wire Wire Line
	5950 5650 5500 5650
Wire Wire Line
	5500 5750 5950 5750
Wire Wire Line
	5950 3400 6000 3400
Wire Wire Line
	6000 3400 6000 3450
Wire Wire Line
	6000 3450 6700 3450
Wire Wire Line
	6200 3300 6200 3450
Connection ~ 6200 3450
Wire Wire Line
	4000 1700 4000 1950
Connection ~ 4000 1950
Wire Wire Line
	8500 2450 8150 2450
Wire Wire Line
	8150 2550 8500 2550
Wire Wire Line
	8150 2650 8500 2650
Wire Wire Line
	8150 2750 8500 2750
Wire Wire Line
	8150 2850 8500 2850
Wire Wire Line
	8150 2950 8500 2950
Wire Wire Line
	8150 3050 8500 3050
Wire Wire Line
	8150 3150 8500 3150
Wire Wire Line
	8150 3250 8500 3250
Wire Wire Line
	8150 3350 8500 3350
Wire Wire Line
	8000 3450 8500 3450
Wire Wire Line
	8000 3550 8500 3550
Wire Wire Line
	5950 2050 6100 2050
Wire Wire Line
	5950 2150 6100 2150
Wire Wire Line
	5950 2250 6100 2250
Wire Wire Line
	5950 2350 6100 2350
Wire Wire Line
	5950 2450 6100 2450
Wire Wire Line
	5950 2800 6100 2800
Wire Wire Line
	5950 2900 6100 2900
Wire Wire Line
	5950 3000 6100 3000
Wire Wire Line
	5950 3100 6100 3100
Wire Wire Line
	5950 3200 6100 3200
Wire Wire Line
	5950 3300 6100 3300
Wire Wire Line
	9100 2450 9100 3650
Wire Wire Line
	9100 2550 9000 2550
Wire Wire Line
	9100 2650 9000 2650
Connection ~ 9100 2550
Wire Wire Line
	9100 2750 9000 2750
Connection ~ 9100 2650
Wire Wire Line
	9100 2850 9000 2850
Connection ~ 9100 2750
Wire Wire Line
	9100 2950 9000 2950
Connection ~ 9100 2850
Wire Wire Line
	9100 3050 9000 3050
Connection ~ 9100 2950
Wire Wire Line
	9100 3150 9000 3150
Connection ~ 9100 3050
Wire Wire Line
	9100 3250 9000 3250
Connection ~ 9100 3150
Wire Wire Line
	9100 3350 9000 3350
Connection ~ 9100 3250
Wire Wire Line
	9100 3450 9000 3450
Connection ~ 9100 3350
Wire Wire Line
	9100 3550 9000 3550
Connection ~ 9100 3450
Wire Wire Line
	9000 2450 9100 2450
Connection ~ 9100 3550
$Comp
L GND #PWR14
U 1 1 5608F64B
P 9100 3650
F 0 "#PWR14" H 9100 3400 50  0001 C CNN
F 1 "GND" H 9100 3500 50  0000 C CNN
F 2 "" H 9100 3650 60  0000 C CNN
F 3 "" H 9100 3650 60  0000 C CNN
	1    9100 3650
	1    0    0    -1  
$EndComp
Text Label 8150 2450 0    60   ~ 0
28
Text Label 8150 2550 0    60   ~ 0
27
Text Label 8150 2650 0    60   ~ 0
26
Text Label 8150 2750 0    60   ~ 0
25
Text Label 8150 2850 0    60   ~ 0
24
Text Label 8150 2950 0    60   ~ 0
23
Text Label 8150 3050 0    60   ~ 0
19
Text Label 8150 3150 0    60   ~ 0
18
Text Label 8150 3250 0    60   ~ 0
17
Text Label 8150 3350 0    60   ~ 0
16
Text Label 8000 3450 0    60   ~ 0
GPS_RESET
Text Label 8000 3550 0    60   ~ 0
GSM_RESET
Text Label 6100 2050 0    60   ~ 0
GPS_RESET
Text Label 6100 2150 0    60   ~ 0
16
Text Label 6100 2250 0    60   ~ 0
17
Text Label 6100 2350 0    60   ~ 0
18
Text Label 6100 2450 0    60   ~ 0
19
Text Label 6100 2800 0    60   ~ 0
23
Text Label 6100 2900 0    60   ~ 0
24
Text Label 6100 3000 0    60   ~ 0
25
Text Label 6100 3100 0    60   ~ 0
26
Text Label 6100 3200 0    60   ~ 0
27
Text Label 6100 3300 0    60   ~ 0
28
Wire Wire Line
	5950 3950 6100 3950
Text Label 6100 3950 0    60   ~ 0
GSM_RESET
$Comp
L SW_PUSH SW1
U 1 1 5608E8A4
P 7350 3150
F 0 "SW1" H 7500 3260 50  0000 C CNN
F 1 "SW_PUSH" H 7350 3070 50  0000 C CNN
F 2 "" H 7350 3150 60  0000 C CNN
F 3 "" H 7350 3150 60  0000 C CNN
	1    7350 3150
	1    0    0    -1  
$EndComp
Wire Wire Line
	7650 3150 7900 3150
Wire Wire Line
	7900 3150 7900 3200
$Comp
L GND #PWR13
U 1 1 5608EC95
P 7900 3200
F 0 "#PWR13" H 7900 2950 50  0001 C CNN
F 1 "GND" H 7900 3050 50  0000 C CNN
F 2 "" H 7900 3200 60  0000 C CNN
F 3 "" H 7900 3200 60  0000 C CNN
	1    7900 3200
	1    0    0    -1  
$EndComp
Wire Wire Line
	6500 3300 6600 3300
Wire Wire Line
	6700 3150 7050 3150
Wire Wire Line
	6650 3450 6650 3300
Wire Wire Line
	6650 3300 6700 3300
Wire Wire Line
	6700 3300 6700 3150
Connection ~ 6650 3450
$Comp
L D D1
U 1 1 560E2074
P 2650 4100
F 0 "D1" H 2650 4200 50  0000 C CNN
F 1 "D" H 2650 4000 50  0000 C CNN
F 2 "" H 2650 4100 60  0000 C CNN
F 3 "" H 2650 4100 60  0000 C CNN
	1    2650 4100
	-1   0    0    1   
$EndComp
Wire Wire Line
	2800 4100 3000 4100
Wire Wire Line
	2500 4100 2250 4100
$Comp
L GND #PWR1
U 1 1 560E23D2
P 2250 4100
F 0 "#PWR1" H 2250 3850 50  0001 C CNN
F 1 "GND" H 2250 3950 50  0000 C CNN
F 2 "" H 2250 4100 60  0000 C CNN
F 3 "" H 2250 4100 60  0000 C CNN
	1    2250 4100
	1    0    0    -1  
$EndComp
$Comp
L VCC #PWR4
U 1 1 560E256D
P 3000 4100
F 0 "#PWR4" H 3000 3950 50  0001 C CNN
F 1 "VCC" H 3000 4250 50  0000 C CNN
F 2 "" H 3000 4100 60  0000 C CNN
F 3 "" H 3000 4100 60  0000 C CNN
	1    3000 4100
	1    0    0    -1  
$EndComp
$EndSCHEMATC
