(export (version D)
  (design
    (source D:/gitlab/GPS-Tracker/GPS-Tracker/Hardware/GPSTracker/GPSTracker.sch)
    (date "09/28/15 12:17:19")
    (tool "Eeschema (2015-06-30 BZR 5847, Git 785638a)-product")
    (sheet (number 1) (name /) (tstamps /)
      (title_block
        (title)
        (company)
        (rev)
        (date)
        (source GPSTracker.sch)
        (comment (number 1) (value ""))
        (comment (number 2) (value ""))
        (comment (number 3) (value ""))
        (comment (number 4) (value "")))))
  (components
    (comp (ref IC1)
      (value ATMEGA328P-P)
      (footprint Sockets_DIP:DIP-28__300_ELL)
      (libsource (lib atmel) (part ATMEGA328P-P))
      (sheetpath (names /) (tstamps /))
      (tstamp 55FDD24A))
    (comp (ref Y1)
      (value 16MHz)
      (footprint Crystals:Crystal_HC50-U_Vertical)
      (libsource (lib device) (part Crystal_Small))
      (sheetpath (names /) (tstamps /))
      (tstamp 55FDD845))
    (comp (ref C2)
      (value 22pF)
      (footprint Capacitors_ThroughHole:C_Disc_D3_P2.5)
      (libsource (lib device) (part C))
      (sheetpath (names /) (tstamps /))
      (tstamp 55FDD9A1))
    (comp (ref C3)
      (value 22pF)
      (footprint Capacitors_ThroughHole:C_Disc_D3_P2.5)
      (libsource (lib device) (part C))
      (sheetpath (names /) (tstamps /))
      (tstamp 55FDD9D2))
    (comp (ref C1)
      (value 10nF)
      (footprint Capacitors_ThroughHole:C_Disc_D3_P2.5)
      (libsource (lib device) (part C))
      (sheetpath (names /) (tstamps /))
      (tstamp 55FDDC64))
    (comp (ref P1)
      (value POWER)
      (footprint Pin_Headers:Pin_Header_Straight_2x05)
      (libsource (lib conn) (part CONN_02X05))
      (sheetpath (names /) (tstamps /))
      (tstamp 55FDEC1A))
    (comp (ref P3)
      (value LEDs)
      (footprint Pin_Headers:Pin_Header_Straight_2x03)
      (libsource (lib conn) (part CONN_02X03))
      (sheetpath (names /) (tstamps /))
      (tstamp 55FDF3A2))
    (comp (ref R1)
      (value 1K)
      (footprint Resistors_ThroughHole:Resistor_Horizontal_RM10mm)
      (libsource (lib device) (part R))
      (sheetpath (names /) (tstamps /))
      (tstamp 55FDF571))
    (comp (ref R2)
      (value 1K)
      (footprint Resistors_ThroughHole:Resistor_Horizontal_RM10mm)
      (libsource (lib device) (part R))
      (sheetpath (names /) (tstamps /))
      (tstamp 55FDF6F4))
    (comp (ref R3)
      (value 1K)
      (footprint Resistors_ThroughHole:Resistor_Horizontal_RM10mm)
      (libsource (lib device) (part R))
      (sheetpath (names /) (tstamps /))
      (tstamp 55FDF737))
    (comp (ref P2)
      (value GPS)
      (footprint Pin_Headers:Pin_Header_Straight_1x02)
      (libsource (lib conn) (part CONN_01X02))
      (sheetpath (names /) (tstamps /))
      (tstamp 55FE115C))
    (comp (ref P4)
      (value RX/TX)
      (footprint Pin_Headers:Pin_Header_Straight_1x05)
      (libsource (lib conn) (part CONN_01X05))
      (sheetpath (names /) (tstamps /))
      (tstamp 55FE3448))
    (comp (ref R4)
      (value 10k)
      (footprint Resistors_ThroughHole:Resistor_Horizontal_RM10mm)
      (libsource (lib device) (part R))
      (sheetpath (names /) (tstamps /))
      (tstamp 55FE37EA))
    (comp (ref P5)
      (value CONN_02X12)
      (footprint Socket_Strips:Socket_Strip_Straight_2x12)
      (libsource (lib conn) (part CONN_02X12))
      (sheetpath (names /) (tstamps /))
      (tstamp 5608E8AB))
    (comp (ref SW1)
      (value SW_PUSH)
      (libsource (lib device) (part SW_PUSH))
      (sheetpath (names /) (tstamps /))
      (tstamp 5608E8A4)))
  (libparts
    (libpart (lib device) (part C)
      (description "Unpolarized capacitor")
      (footprints
        (fp C?)
        (fp C_????_*)
        (fp C_????)
        (fp SMD*_c)
        (fp Capacitor*))
      (fields
        (field (name Reference) C)
        (field (name Value) C))
      (pins
        (pin (num 1) (name ~) (type passive))
        (pin (num 2) (name ~) (type passive))))
    (libpart (lib device) (part Crystal_Small)
      (description "Two pin crystal")
      (footprints
        (fp Crystal_))
      (fields
        (field (name Reference) Y)
        (field (name Value) Crystal_Small))
      (pins
        (pin (num 1) (name 1) (type passive))
        (pin (num 2) (name 2) (type passive))))
    (libpart (lib device) (part R)
      (description Resistor)
      (footprints
        (fp R_*)
        (fp Resistor_*))
      (fields
        (field (name Reference) R)
        (field (name Value) R))
      (pins
        (pin (num 1) (name ~) (type passive))
        (pin (num 2) (name ~) (type passive))))
    (libpart (lib device) (part SW_PUSH)
      (description "Push Button")
      (fields
        (field (name Reference) SW)
        (field (name Value) SW_PUSH))
      (pins
        (pin (num 1) (name 1) (type passive))
        (pin (num 2) (name 2) (type passive))))
    (libpart (lib conn) (part CONN_01X02)
      (footprints
        (fp Pin_Header_Straight_1X02)
        (fp Pin_Header_Angled_1X02)
        (fp Socket_Strip_Straight_1X02)
        (fp Socket_Strip_Angled_1X02))
      (fields
        (field (name Reference) P)
        (field (name Value) CONN_01X02))
      (pins
        (pin (num 1) (name P1) (type passive))
        (pin (num 2) (name P2) (type passive))))
    (libpart (lib conn) (part CONN_01X05)
      (footprints
        (fp Pin_Header_Straight_1X05)
        (fp Pin_Header_Angled_1X05)
        (fp Socket_Strip_Straight_1X05)
        (fp Socket_Strip_Angled_1X05))
      (fields
        (field (name Reference) P)
        (field (name Value) CONN_01X05))
      (pins
        (pin (num 1) (name P1) (type passive))
        (pin (num 2) (name P2) (type passive))
        (pin (num 3) (name P3) (type passive))
        (pin (num 4) (name P4) (type passive))
        (pin (num 5) (name P5) (type passive))))
    (libpart (lib conn) (part CONN_02X03)
      (footprints
        (fp Pin_Header_Straight_2X03)
        (fp Pin_Header_Angled_2X03)
        (fp Socket_Strip_Straight_2X03)
        (fp Socket_Strip_Angled_2X03))
      (fields
        (field (name Reference) P)
        (field (name Value) CONN_02X03))
      (pins
        (pin (num 1) (name P1) (type passive))
        (pin (num 2) (name P2) (type passive))
        (pin (num 3) (name P3) (type passive))
        (pin (num 4) (name P4) (type passive))
        (pin (num 5) (name P5) (type passive))
        (pin (num 6) (name P6) (type passive))))
    (libpart (lib conn) (part CONN_02X05)
      (footprints
        (fp Pin_Header_Straight_2X05)
        (fp Pin_Header_Angled_2X05)
        (fp Socket_Strip_Straight_2X05)
        (fp Socket_Strip_Angled_2X05))
      (fields
        (field (name Reference) P)
        (field (name Value) CONN_02X05))
      (pins
        (pin (num 1) (name P1) (type passive))
        (pin (num 2) (name P2) (type passive))
        (pin (num 3) (name P3) (type passive))
        (pin (num 4) (name P4) (type passive))
        (pin (num 5) (name P5) (type passive))
        (pin (num 6) (name P6) (type passive))
        (pin (num 7) (name P7) (type passive))
        (pin (num 8) (name P8) (type passive))
        (pin (num 9) (name P9) (type passive))
        (pin (num 10) (name P10) (type passive))))
    (libpart (lib conn) (part CONN_02X12)
      (footprints
        (fp Pin_Header_Straight_2X12)
        (fp Pin_Header_Angled_2X12)
        (fp Socket_Strip_Straight_2X12)
        (fp Socket_Strip_Angled_2X12))
      (fields
        (field (name Reference) P)
        (field (name Value) CONN_02X12))
      (pins
        (pin (num 1) (name P1) (type passive))
        (pin (num 2) (name P2) (type passive))
        (pin (num 3) (name P3) (type passive))
        (pin (num 4) (name P4) (type passive))
        (pin (num 5) (name P5) (type passive))
        (pin (num 6) (name P6) (type passive))
        (pin (num 7) (name P7) (type passive))
        (pin (num 8) (name P8) (type passive))
        (pin (num 9) (name P9) (type passive))
        (pin (num 10) (name P10) (type passive))
        (pin (num 11) (name P11) (type passive))
        (pin (num 12) (name P12) (type passive))
        (pin (num 13) (name P13) (type passive))
        (pin (num 14) (name P14) (type passive))
        (pin (num 15) (name P15) (type passive))
        (pin (num 16) (name P16) (type passive))
        (pin (num 17) (name P17) (type passive))
        (pin (num 18) (name P18) (type passive))
        (pin (num 19) (name P19) (type passive))
        (pin (num 20) (name P20) (type passive))
        (pin (num 21) (name P21) (type passive))
        (pin (num 22) (name P22) (type passive))
        (pin (num 23) (name P23) (type passive))
        (pin (num 24) (name P24) (type passive))))
    (libpart (lib atmel) (part ATMEGA168A-P)
      (aliases
        (alias ATMEGA48A-P)
        (alias ATMEGA48PA-P)
        (alias ATMEGA88A-P)
        (alias ATMEGA88PA-P)
        (alias ATMEGA168PA-P)
        (alias ATMEGA328-P)
        (alias ATMEGA328P-P))
      (description "ATMEGA168A, PDIP28 Narrow, 16k Flash, 1kB SRAM, 512B EEPROM")
      (docs http://www.atmel.com/images/atmel-8271-8-bit-avr-microcontroller-atmega48a-48pa-88a-88pa-168a-168pa-328-328p_datasheet.pdf)
      (footprints
        (fp 28DIP-ELL600)
        (fp 28dip600))
      (fields
        (field (name Reference) IC)
        (field (name Value) ATMEGA168A-P)
        (field (name Footprint) DIL28))
      (pins
        (pin (num 1) (name "(PCINT14/~RESET~)PC6") (type BiDi))
        (pin (num 2) (name "(PCINT16/RXD)PD0") (type BiDi))
        (pin (num 3) (name "(PCINT17/TXD)PD1") (type BiDi))
        (pin (num 4) (name "(PCINT18/INT0)PD2") (type BiDi))
        (pin (num 5) (name "(PCINT19/OC2B/INT1)PD3") (type BiDi))
        (pin (num 6) (name "(PCINT20/XCK/T0)PD4") (type BiDi))
        (pin (num 7) (name VCC) (type power_in))
        (pin (num 8) (name GND) (type power_in))
        (pin (num 9) (name "(PCINT6/XTAL1/TOSC1)PB6") (type BiDi))
        (pin (num 10) (name "(PCINT7/XTAL2/TOSC2)PB7") (type BiDi))
        (pin (num 11) (name "(PCINT21/OC0B/T1)PD5") (type BiDi))
        (pin (num 12) (name "(PCINT22/OC0A/AIN0)PD6") (type BiDi))
        (pin (num 13) (name "(PCINT23/AIN1)PD7") (type BiDi))
        (pin (num 14) (name "(PCINT0/CLKO/ICP1)PB0") (type BiDi))
        (pin (num 15) (name "(PCINT1/OC1A)PB1") (type BiDi))
        (pin (num 16) (name "(PCINT2/OC1B/~SS~)PB2") (type BiDi))
        (pin (num 17) (name "(PCINT3/OC2A/MOSI)PB3") (type BiDi))
        (pin (num 18) (name "(PCINT4/MISO)PB4") (type BiDi))
        (pin (num 19) (name "(PCINT5/SCK)PB5") (type BiDi))
        (pin (num 20) (name AVCC) (type power_in))
        (pin (num 21) (name AREF) (type BiDi))
        (pin (num 22) (name GND) (type power_in))
        (pin (num 23) (name "(PCINT8/ADC0)PC0") (type BiDi))
        (pin (num 24) (name "(PCINT9/ADC1)PC1") (type BiDi))
        (pin (num 25) (name "(PCINT10/ADC2)PC2") (type BiDi))
        (pin (num 26) (name "(PCINT11/ADC3)PC3") (type BiDi))
        (pin (num 27) (name "(PCINT12/SDA/ADC4)PC4") (type BiDi))
        (pin (num 28) (name "(PCINT13/SCL/ADC5)PC5") (type BiDi)))))
  (libraries
    (library (logical device)
      (uri "C:\\Program Files\\KiCad\\share\\kicad\\library\\device.lib"))
    (library (logical conn)
      (uri "C:\\Program Files\\KiCad\\share\\kicad\\library\\conn.lib"))
    (library (logical atmel)
      (uri "C:\\Program Files\\KiCad\\share\\kicad\\library\\atmel.lib")))
  (nets
    (net (code 1) (name /TX)
      (node (ref IC1) (pin 14))
      (node (ref P2) (pin 2)))
    (net (code 2) (name /RX)
      (node (ref IC1) (pin 13))
      (node (ref P2) (pin 1)))
    (net (code 3) (name /GSM)
      (node (ref IC1) (pin 12))
      (node (ref R2) (pin 2)))
    (net (code 4) (name /GPS)
      (node (ref R3) (pin 2))
      (node (ref IC1) (pin 11)))
    (net (code 5) (name "Net-(P3-Pad5)")
      (node (ref R3) (pin 1))
      (node (ref P3) (pin 5)))
    (net (code 6) (name /24)
      (node (ref P5) (pin 10))
      (node (ref IC1) (pin 24)))
    (net (code 7) (name /23)
      (node (ref P5) (pin 12))
      (node (ref IC1) (pin 23)))
    (net (code 8) (name /19)
      (node (ref P5) (pin 14))
      (node (ref IC1) (pin 19)))
    (net (code 9) (name /18)
      (node (ref P5) (pin 16))
      (node (ref IC1) (pin 18)))
    (net (code 10) (name /17)
      (node (ref P5) (pin 18))
      (node (ref IC1) (pin 17)))
    (net (code 11) (name /16)
      (node (ref P5) (pin 20))
      (node (ref IC1) (pin 16)))
    (net (code 12) (name /15)
      (node (ref P5) (pin 22))
      (node (ref IC1) (pin 15)))
    (net (code 13) (name /6)
      (node (ref IC1) (pin 6))
      (node (ref P5) (pin 24)))
    (net (code 14) (name VCC)
      (node (ref IC1) (pin 7))
      (node (ref C1) (pin 2))
      (node (ref P1) (pin 3))
      (node (ref R4) (pin 1))
      (node (ref P1) (pin 9))
      (node (ref P1) (pin 5))
      (node (ref IC1) (pin 20))
      (node (ref R1) (pin 2))
      (node (ref P1) (pin 1))
      (node (ref P1) (pin 7)))
    (net (code 15) (name /25)
      (node (ref P5) (pin 8))
      (node (ref IC1) (pin 25)))
    (net (code 16) (name "Net-(IC1-Pad2)")
      (node (ref IC1) (pin 2))
      (node (ref P4) (pin 2)))
    (net (code 17) (name "Net-(IC1-Pad3)")
      (node (ref P4) (pin 3))
      (node (ref IC1) (pin 3)))
    (net (code 18) (name "Net-(IC1-Pad4)")
      (node (ref P4) (pin 4))
      (node (ref IC1) (pin 4)))
    (net (code 19) (name "Net-(IC1-Pad5)")
      (node (ref P4) (pin 5))
      (node (ref IC1) (pin 5)))
    (net (code 20) (name "Net-(P3-Pad1)")
      (node (ref R1) (pin 1))
      (node (ref P3) (pin 1)))
    (net (code 21) (name "Net-(P3-Pad3)")
      (node (ref R2) (pin 1))
      (node (ref P3) (pin 3)))
    (net (code 22) (name /26)
      (node (ref P5) (pin 6))
      (node (ref IC1) (pin 26)))
    (net (code 23) (name GND)
      (node (ref P1) (pin 8))
      (node (ref P1) (pin 6))
      (node (ref IC1) (pin 22))
      (node (ref P5) (pin 17))
      (node (ref P5) (pin 23))
      (node (ref IC1) (pin 8))
      (node (ref P5) (pin 13))
      (node (ref P5) (pin 21))
      (node (ref P5) (pin 11))
      (node (ref P5) (pin 15))
      (node (ref P5) (pin 9))
      (node (ref P5) (pin 7))
      (node (ref P5) (pin 5))
      (node (ref P5) (pin 19))
      (node (ref P5) (pin 3))
      (node (ref SW1) (pin 2))
      (node (ref P5) (pin 1))
      (node (ref P1) (pin 10))
      (node (ref P3) (pin 2))
      (node (ref P3) (pin 4))
      (node (ref P3) (pin 6))
      (node (ref C2) (pin 1))
      (node (ref C3) (pin 1))
      (node (ref C1) (pin 1))
      (node (ref P1) (pin 2))
      (node (ref P1) (pin 4)))
    (net (code 24) (name "Net-(IC1-Pad1)")
      (node (ref R4) (pin 2))
      (node (ref IC1) (pin 1))
      (node (ref P4) (pin 1))
      (node (ref SW1) (pin 1)))
    (net (code 25) (name /28)
      (node (ref P5) (pin 2))
      (node (ref IC1) (pin 28)))
    (net (code 26) (name /27)
      (node (ref P5) (pin 4))
      (node (ref IC1) (pin 27)))
    (net (code 27) (name "Net-(C3-Pad2)")
      (node (ref Y1) (pin 2))
      (node (ref C3) (pin 2))
      (node (ref IC1) (pin 10)))
    (net (code 28) (name "Net-(C2-Pad2)")
      (node (ref C2) (pin 2))
      (node (ref IC1) (pin 9))
      (node (ref Y1) (pin 1)))
    (net (code 29) (name "Net-(IC1-Pad21)")
      (node (ref IC1) (pin 21)))))