AT+CGDCONT?



+CGDCONT: 1,"IP","tata.docomo.internet","0.0.0.0",0,0

+CGDCONT: 2,"IP","","0.0.0.0",0,0

+CGDCONT: 3,"IP","","0.0.0.0",0,0



OK

Following connection profiles are available,



CID-> 1
PDP Type->IP
APN->tata.docomo.internet
PDP Address->0.0.0.0
Data Compression->0
Header Compression->0



CID-> 2
PDP Type->IP
APN->
PDP Address->0.0.0.0
Data Compression->0
Header Compression->0



CID-> 3
PDP Type->IP
APN->
PDP Address->0.0.0.0
Data Compression->0
Header Compression->0

Checking registration status...

AT+CREG?



+CREG: 0,1



OK

The device is registered in home network.

Checking if device is already connected...

AT+CGACT?



+CGACT: 1,0

+CGACT: 2,0

+CGACT: 3,0



OK

AT+CMEE=1



OK

Attaching to network...
AT+CGATT=1



OK


Connecting to PDP profile 1..

AT+CGACT=1,1



OK

Connection is successful
AT+CGACT?



+CGACT: 1,1

+CGACT: 2,0

+CGACT: 3,0



OK

Device is connected.
AT+CGPADDR= 1



+CGPADDR: 1,"100.102.120.35"



OK

IP Address of the connected profile is "100.102.120.35"

Checking registration status...

AT+CREG?



+CREG: 0,1



OK

The device is registered in home network.

Checking if device is already connected...

AT+CGACT?



+CGACT: 1,1

+CGACT: 2,0

+CGACT: 3,0



OK

Disconnected profile  1
AT+CGACT=0, 1



OK

Dis-connect is successful
AT+CMEE=1



OK

Attaching to network...
AT+CGATT=1



OK


Setting up APN for TCP connection...

AT+CSTT="tata.docomo.internet"



+CME ERROR: 3

Bring up GPRS Connection...

AT+CIICR



OK

GPRS Connection bring up sucessful..

AT+CIFSR



100.103.222.167

AT+CIPSTART="TCP","23.101.22.231","80"



OK



CONNECT OK

TCP connection success

Disconnecting port COM1.



No port is connected.




Sending AT query..

AT



OK

Successful response for AT query..

AT+CGMM



SIMCOM_SIM900A



OK

Model Number : SIMCOM_SIM900A
AT+CGMI



SIMCOM_Ltd



OK

Manufacturer : SIMCOM_Ltd
Checking registration status...

AT+CREG?



+CREG: 0,1



OK

The device is registered in home network.

Checking if device is already connected...

AT+CGACT?



+CGACT: 1,0

+CGACT: 2,0

+CGACT: 3,0



OK

AT+CMEE=1



OK

Attaching to network...
AT+CGATT=1



OK


Setting up APN for TCP connection...

AT+CSTT="tata.docomo.internet"



+CME ERROR: 3

Bring up GPRS Connection...

AT+CIICR



+CME ERROR: 3


AT+CIFSR



100.103.222.167

AT+CIPSTART="TCP","23.101.22.231","80"



OK



CONNECT OK

TCP connection success

Sending TCP data

AT+CIPSEND



> POST http://krtyabackoffice.cloudapp.net:8084//Webservices.asmx/InsertTrackingData HTTP/1.1
Host: krtyabackoffice.cloudapp.net:8084
Content-Type: application/json
Content-Length: 136

{"DeviceId":1,"Longitude":"PC","Latitude":"72.1","speed":"0","DateStamp":"2015-7-30","APIKey":"AIzaSyB4NyJ3xdQbHcj2v0C2CHtmgAPxSXYqmn0"}

SEND OK

HTTP/1.1 404 Not Found

Content-Type: text/html; charset=us-ascii

Server: Microsoft-HTTPAPI/2.0

Date: Fri, 31 Jul 2015 12:00:43 GMT

Connection: close

Content-Length: 315



<!DOCTYPE HTML PUBLIC "-//W3C//DTD HTML 4.01//EN""http://www.w3.org/TR/html4/strict.dtd">

<HTML><HEAD><TITLE>Not Found</TITLE>

<META HTTP-EQUIV="Content-Type" Content="text/html; charset=us-ascii"></HEAD>

<BODY><h2>Not Found</h2>

<hr><p>HTTP Error 404. The requested resource is not found.</p>

</BODY></HTML>



CLOSED

TCP connection is closed by remote server

No TCP or UDP connection.

Checking registration status...

AT+CREG?



+CREG: 0,1



OK

The device is registered in home network.

Checking if device is already connected...

AT+CGACT?



+CGACT: 1,0

+CGACT: 2,0

+CGACT: 3,0



OK

AT+CMEE=1



OK

Attaching to network...
AT+CGATT=1



OK


Setting up APN for TCP connection...

AT+CSTT="tata.docomo.internet"



+CME ERROR: 3

Bring up GPRS Connection...

AT+CIICR



+CME ERROR: 3


AT+CIFSR



100.103.222.167

AT+CIPSTART="TCP","23.101.22.231","80"



OK



CONNECT OK

TCP connection success

Sending TCP data

AT+CIPSEND



> POST //Webservices.asmx/InsertTrackingData HTTP/1.1
Host: krtyabackoffice.cloudapp.net:8084
Content-Type: application/json
Content-Length: 136

{"DeviceId":1,"Longitude":"PC","Latitude":"72.1","speed":"0","DateStamp":"2015-7-30","APIKey":"AIzaSyB4NyJ3xdQbHcj2v0C2CHtmgAPxSXYqmn0"}

SEND OK

HTTP/1.1 404 Not Found

Content-Type: text/html; charset=us-ascii

Server: Microsoft-HTTPAPI/2.0

Date: Fri, 31 Jul 2015 12:01:15 GMT

Connection: close

Content-Length: 315



<!DOCTYPE HTML PUBLIC "-//W3C//DTD HTML 4.01//EN""http://www.w3.org/TR/html4/strict.dtd">

<HTML><HEAD><TITLE>Not Found</TITLE>

<META HTTP-EQUIV="Content-Type" Content="text/html; charset=us-ascii"></HEAD>

<BODY><h2>Not Found</h2>

<hr><p>HTTP Error 404. The requested resource is not found.</p>

</BODY></HTML>



CLOSED

TCP connection is closed by remote server

Checking registration status...

AT+CREG?



+CREG: 0,1



OK

The device is registered in home network.

Checking if device is already connected...

AT+CGACT?



+CGACT: 1,0

+CGACT: 2,0

+CGACT: 3,0



OK

AT+CMEE=1



OK

Attaching to network...
AT+CGATT=1



OK


Setting up APN for TCP connection...

AT+CSTT="tata.docomo.internet"



+CME ERROR: 3

Bring up GPRS Connection...

AT+CIICR



+CME ERROR: 3


AT+CIFSR



100.103.222.167

AT+CIPSTART="TCP","23.101.22.231","80"



OK



CONNECT OK

TCP connection success

Sending TCP data

AT+CIPSEND



> POST //Webservices.asmx/InsertTrackingData HTTP/1.1
Host: krtyabackoffice.cloudapp.net:8084
Content-Type: application/json
Content-Length: 136

{"DeviceId":1,"Longitude":"PC","Latitude":"72.1","speed":"0","DateStamp":"2015-7-30","APIKey":"AIzaSyB4NyJ3xdQbHcj2v0C2CHtmgAPxSXYqmn0"}

SEND OK

HTTP/1.1 404 Not Found

Content-Type: text/html; charset=us-ascii

Server: Microsoft-HTTPAPI/2.0

Date: Fri, 31 Jul 2015 12:02:41 GMT

Connection: close

Content-Length: 315



<!DOCTYPE HTML PUBLIC "-//W3C//DTD HTML 4.01//EN""http://www.w3.org/TR/html4/strict.dtd">

<HTML><HEAD><TITLE>Not Found</TITLE>

<META HTTP-EQUIV="Content-Type" Content="text/html; charset=us-ascii"></HEAD>

<BODY><h2>Not Found</h2>

<hr><p>HTTP Error 404. The requested resource is not found.</p>

</BODY></HTML>



CLOSED

TCP connection is closed by remote server

AT+CIPSHUT



SHUT OK

Checking registration status...

AT+CREG?



+CREG: 0,1



OK

The device is registered in home network.

Checking if device is already connected...

AT+CGACT?



+CGACT: 1,0

+CGACT: 2,0

+CGACT: 3,0



OK

AT+CMEE=1



OK

Attaching to network...
AT+CGATT=1



OK


Setting up APN for TCP connection...

AT+CSTT="tata.docomo.internet"



OK

APN setup for TCP connection successful..

Bring up GPRS Connection...

AT+CIICR



OK

AT+CIPSTART="TCP","23.101.22.231","80"



+CME ERROR: 3

Checking registration status...

AT+CREG?



+CREG: 0,1



OK

The device is registered in home network.

Checking if device is already connected...

AT+CGACT?



+CGACT: 1,0

+CGACT: 2,0

+CGACT: 3,0



OK

AT+CMEE=1



OK

Attaching to network...
AT+CGATT=1



OK


Setting up APN for TCP connection...

AT+CSTT="tata.docomo.internet"



+CME ERROR: 3

Bring up GPRS Connection...

AT+CIICR



+CME ERROR: 3


AT+CIFSR



100.100.214.108

AT+CIPSTART="TCP","50.87.144.195","80"



OK

No TCP or UDP connection.

Checking registration status...

AT+CREG?



+CREG: 0,1



OK

The device is registered in home network.

Checking if device is already connected...

AT+CGACT?



+CGACT: 1,0

+CGACT: 2,0

+CGACT: 3,0



OK

AT+CMEE=1



OK

Attaching to network...
AT+CGATT=1



OK


Setting up APN for TCP connection...

AT+CSTT="tata.docomo.internet"



+CME ERROR: 3

Bring up GPRS Connection...

AT+CIICR



+CME ERROR: 3


AT+CIFSR



100.100.214.108

AT+CIPSTART="TCP","50.87.144.195","80"



ERROR



ALREADY CONNECT

No TCP or UDP connection.

No TCP session is currently open..

Checking registration status...

AT+CREG?



+CREG: 0,1



OK

The device is registered in home network.

Checking if device is already connected...

AT+CGACT?



+CGACT: 1,0

+CGACT: 2,0

+CGACT: 3,0



OK

AT+CMEE=1



OK

Attaching to network...
AT+CGATT=1



OK


Setting up APN for TCP connection...

AT+CSTT="tata.docomo.internet"



+CME ERROR: 3

Bring up GPRS Connection...

AT+CIICR



+CME ERROR: 3


AT+CIFSR



100.100.214.108

AT+CIPSTART="TCP","50.87.144.195","80"



ERROR



ALREADY CONNECT

AT+CIPSHUT



SHUT OK

Checking registration status...

AT+CREG?



+CREG: 0,1



OK

The device is registered in home network.

Checking if device is already connected...

AT+CGACT?



+CGACT: 1,0

+CGACT: 2,0

+CGACT: 3,0



OK

AT+CMEE=1



OK

Attaching to network...
AT+CGATT=1



OK


Setting up APN for TCP connection...

AT+CSTT="tata.docomo.internet"



OK

APN setup for TCP connection successful..

Bring up GPRS Connection...

AT+CIICR

No TCP or UDP connection.

No TCP session is currently open..



+PDP: DEACT



ERROR

Checking registration status...

AT+CREG?



+CREG: 0,1



OK

The device is registered in home network.

Checking if device is already connected...

AT+CGACT?



+CGACT: 1,0

+CGACT: 2,0

+CGACT: 3,0



OK

AT+CMEE=1



OK

Attaching to network...
AT+CGATT=1



OK


Connecting to PDP profile 1..

AT+CGACT=1,1


Device is NOT connected, so no IP address is available.



OK

Checking registration status...

AT+CREG?



+CREG: 0,1



OK

The device is registered in home network.

Checking if device is already connected...

AT+CGACT?



+CGACT: 1,1

+CGACT: 2,0

+CGACT: 3,0



OK

Disconnected profile  1
AT+CGACT=0, 1



OK

Dis-connect is successful
AT+CMEE=1



OK

Attaching to network...
AT+CGATT=1



OK


Setting up APN for TCP connection...

AT+CSTT="tata.docomo.internet"



+CME ERROR: 3

Bring up GPRS Connection...

AT+CIICR



+CME ERROR: 3


AT+CIFSR



+CME ERROR: 3

IP not avaialble. Check if the PDP context has been activated
Unable to get local IP address for TCP/UDP connection...

AT+CIPSHUT



SHUT OK

AT+HTTPTERM



+CME ERROR: 3

Checking registration status...

AT+CREG?



+CREG: 0,1



OK

The device is registered in home network.

Checking if device is already connected...

AT+CGACT?



+CGACT: 1,0

+CGACT: 2,0

+CGACT: 3,0



OK

AT+CMEE=1



OK

Attaching to network...
AT+CGATT=1



OK


Setting up APN for TCP connection...

AT+CSTT="tata.docomo.internet"



OK

APN setup for TCP connection successful..

Bring up GPRS Connection...

AT+CIICR



OK

GPRS Connection bring up sucessful..

AT+CIFSR



100.103.207.16

AT+CIPSTART="TCP","50.87.144.195","80"



OK



CONNECT OK

TCP connection success

Sending TCP data

AT+CIPSEND



> 
POST /sandbox/posttest.php HTTP/1.1
Host: black-electronics.com
Content-Type: application/x-www-form-urlencoded
Content-Length: 15

var_a=1&var_b=2

SEND OK

HTTP/1.1 200 OK

Server: nginx/1.8.0

Date: Fri, 31 Jul 2015 12:52:33 GMT

Content-Type: text/html

Transfer-Encoding: chunked

Connection: keep-alive



21

 POST success. var_a= 1 var_b= 2 

0



